[
    {
        "id": "281",
        "lastVisitTime": 1558543029030.739,
        "title": "Google",
        "typedCount": 0,
        "url": "https://www.google.com/",
        "visitCount": 1
    },
    {
        "id": "276",
        "lastVisitTime": 1558543025099.967,
        "title": "Connexion : comptes Google",
        "typedCount": 0,
        "url": "https://accounts.google.com/signin/v2/sl/pwd?ssp=1&email_hint=drgoulu%40gmail.com&continue=https%3A%2F%2Fwww.google.com%2F&flowName=GlifDesktopChromeSync&cid=1&navigationDirection=forward",
        "visitCount": 1
    },
    {
        "id": "275",
        "lastVisitTime": 1558543023225.2651,
        "title": "Connexion : comptes Google",
        "typedCount": 0,
        "url": "https://accounts.google.com/signin/chrome/sync/identifier?ssp=1&email_hint=drgoulu%40gmail.com&continue=https%3A%2F%2Fwww.google.com%2F&flowName=GlifDesktopChromeSync",
        "visitCount": 1
    },
    {
        "id": "274",
        "lastVisitTime": 1558543023175.511,
        "title": "Connexion : comptes Google",
        "typedCount": 0,
        "url": "https://accounts.google.com/signin/chrome/sync?ssp=1&email_hint=drgoulu%40gmail.com&continue=https%3A%2F%2Fwww.google.com%2F",
        "visitCount": 2
    },
    {
        "id": "273",
        "lastVisitTime": 1558543012580.396,
        "title": "Majk ft. Butrint Imeri - Sa gjynah - YouTube",
        "typedCount": 0,
        "url": "https://www.youtube.com/watch?v=o5uY6FriOMg",
        "visitCount": 1
    },
    {
        "id": "272",
        "lastVisitTime": 1558542827210.946,
        "title": "Kida ft. Lyrical Son - Deja Vu - YouTube",
        "typedCount": 0,
        "url": "https://www.youtube.com/watch?v=l7FS45Fh0Cc",
        "visitCount": 1
    },
    {
        "id": "271",
        "lastVisitTime": 1558542823041.419,
        "title": "Lyrical Son x Ledri Vula x Mc Kresha - Menemadhe (Official Video) - YouTube",
        "typedCount": 0,
        "url": "https://www.youtube.com/watch?v=EYEpYVWosYc",
        "visitCount": 1
    },
    {
        "id": "270",
        "lastVisitTime": 1558542819985.255,
        "title": "Majk ft. Yll Limani - Krejt ti fala (Official Video 4K) - YouTube",
        "typedCount": 0,
        "url": "https://www.youtube.com/watch?v=6XZ_wyT7kxk",
        "visitCount": 1
    },
    {
        "id": "269",
        "lastVisitTime": 1558542816547.113,
        "title": "Yll Limani - Harrom (Official Video) - YouTube",
        "typedCount": 0,
        "url": "https://www.youtube.com/watch?v=KKne-Mcrdzs",
        "visitCount": 1
    },
    {
        "id": "268",
        "lastVisitTime": 1558542813194.0862,
        "title": "Tuna ft. Yll Limani - A don hala - YouTube",
        "typedCount": 0,
        "url": "https://www.youtube.com/watch?v=VG4EpC-rjto",
        "visitCount": 1
    },
    {
        "id": "267",
        "lastVisitTime": 1558542810143.6492,
        "title": "Cricket & Numen - Kthema Kohen (Remix) - YouTube",
        "typedCount": 0,
        "url": "https://www.youtube.com/watch?v=1yVoa0vA0Ho",
        "visitCount": 1
    },
    {
        "id": "266",
        "lastVisitTime": 1558542806346.636,
        "title": "Mandi - Ylli bukurise (Official Audio) - YouTube",
        "typedCount": 0,
        "url": "https://www.youtube.com/watch?v=q9INADfNwAo",
        "visitCount": 1
    },
    {
        "id": "265",
        "lastVisitTime": 1558542802343.148,
        "title": "Muharrem Ahmeti, Mandi, Eri Qerimi & Landi Roko - Viti Ri Gon Kalaja (Official Video) - YouTube",
        "typedCount": 0,
        "url": "https://www.youtube.com/watch?v=7YnkHY3kGwM",
        "visitCount": 1
    },
    {
        "id": "264",
        "lastVisitTime": 1558542799025.404,
        "title": "Gili, Sinani, Teuta, Dani - Potpuri (Gezuar 2019) - YouTube",
        "typedCount": 0,
        "url": "https://www.youtube.com/watch?v=sGyRr7pN1gY",
        "visitCount": 1
    },
    {
        "id": "263",
        "lastVisitTime": 1558542795640.179,
        "title": "Astrit Mulaj - Rrush o rrush (Gezuar 2019) - YouTube",
        "typedCount": 0,
        "url": "https://www.youtube.com/watch?v=R0GwrmkfTR0",
        "visitCount": 1
    },
    {
        "id": "262",
        "lastVisitTime": 1558542792541.268,
        "title": "Teuta Selimi - Loqka jem - YouTube",
        "typedCount": 0,
        "url": "https://www.youtube.com/watch?v=gofq-IzXJzU",
        "visitCount": 1
    },
    {
        "id": "261",
        "lastVisitTime": 1558542788942.3,
        "title": "Shkumbin Ismaili - Mos më akuzo - YouTube",
        "typedCount": 0,
        "url": "https://www.youtube.com/watch?v=Eivt5LHlcjg",
        "visitCount": 1
    },
    {
        "id": "260",
        "lastVisitTime": 1558542785656.816,
        "title": "Shkumbin Ismaili ft. Poni - Nuk ta fal (Official Music Video) - YouTube",
        "typedCount": 0,
        "url": "https://www.youtube.com/watch?v=mCmtQ-i3HiY",
        "visitCount": 1
    },
    {
        "id": "259",
        "lastVisitTime": 1558542783007.665,
        "title": "Mahmut Ferati Shko - YouTube",
        "typedCount": 0,
        "url": "https://www.youtube.com/watch?v=8FML8oaytDU",
        "visitCount": 1
    },
    {
        "id": "258",
        "lastVisitTime": 1558542780107.823,
        "title": "Mahmut Ferati oh'stkerkoj ma - YouTube",
        "typedCount": 0,
        "url": "https://www.youtube.com/watch?v=8ddEO0d2tzo",
        "visitCount": 1
    },
    {
        "id": "257",
        "lastVisitTime": 1558542777361.195,
        "title": "Mahmut Ferati - Thuaj - YouTube",
        "typedCount": 0,
        "url": "https://www.youtube.com/watch?v=NnupNCBLcBM",
        "visitCount": 1
    },
    {
        "id": "256",
        "lastVisitTime": 1558542774213.267,
        "title": "Taulant Bajraliu - Cfar nafake (Official Video HD) - YouTube",
        "typedCount": 0,
        "url": "https://www.youtube.com/watch?v=hffpnsqDWCs",
        "visitCount": 1
    },
    {
        "id": "255",
        "lastVisitTime": 1558542771088.795,
        "title": "Emin & Argjend Aliu - Tfala nga mergimi (Cover) - YouTube",
        "typedCount": 0,
        "url": "https://www.youtube.com/watch?v=rwR7-IJ9hc8",
        "visitCount": 2
    },
    {
        "id": "254",
        "lastVisitTime": 1558542768311.8,
        "title": "Sefe Duraj - Kafe e dynja (2019) - YouTube",
        "typedCount": 0,
        "url": "https://www.youtube.com/watch?v=AzeUiaVpzvg",
        "visitCount": 2
    },
    {
        "id": "253",
        "lastVisitTime": 1558542759396.6511,
        "title": "Rifat & Valentina Berisha - Prej një shpati - YouTube",
        "typedCount": 0,
        "url": "https://www.youtube.com/watch?v=YUZn2_W0xOk",
        "visitCount": 1
    },
    {
        "id": "252",
        "lastVisitTime": 1558542756577.943,
        "title": "Duli - Kenga e Selman Kadrise 2015 - YouTube",
        "typedCount": 0,
        "url": "https://www.youtube.com/watch?v=8lNfIIDCynA",
        "visitCount": 1
    },
    {
        "id": "251",
        "lastVisitTime": 1558542753514.2751,
        "title": "Asim Gashi - Hajredin Pasha - YouTube",
        "typedCount": 0,
        "url": "https://www.youtube.com/watch?v=ukpn6hufZeE",
        "visitCount": 1
    },
    {
        "id": "250",
        "lastVisitTime": 1558542750698.3982,
        "title": "Asim Gashi - Po i bjen era retë e zeza (Full HD) - YouTube",
        "typedCount": 0,
        "url": "https://www.youtube.com/watch?v=yO0HumlvJHY",
        "visitCount": 1
    },
    {
        "id": "249",
        "lastVisitTime": 1558542748005.303,
        "title": "Shkurte Fejza - Mora fjalë(Official) - YouTube",
        "typedCount": 0,
        "url": "https://www.youtube.com/watch?v=CBBOtITApwg",
        "visitCount": 1
    },
    {
        "id": "248",
        "lastVisitTime": 1558542745186.5798,
        "title": "Leonora Jakupi - Mos ma prek ti shkja drenicen (Official) - YouTube",
        "typedCount": 0,
        "url": "https://www.youtube.com/watch?v=588N3KpbQCc",
        "visitCount": 1
    },
    {
        "id": "247",
        "lastVisitTime": 1558542742718.028,
        "title": "Ilir Shaqiri - Ushtar Kavaja - YouTube",
        "typedCount": 0,
        "url": "https://www.youtube.com/watch?v=Ltd4KDt1r-Q",
        "visitCount": 1
    },
    {
        "id": "246",
        "lastVisitTime": 1558542740159.098,
        "title": "Arif Vladi Jam Kosova e Shqiptaris - YouTube",
        "typedCount": 0,
        "url": "https://www.youtube.com/watch?v=rr3eNrBNRsE",
        "visitCount": 1
    },
    {
        "id": "245",
        "lastVisitTime": 1558542737677,
        "title": "Ilir Shaqiri - Lulja e Koshares - YouTube",
        "typedCount": 0,
        "url": "https://www.youtube.com/watch?v=3rE1FbLCG3w",
        "visitCount": 1
    },
    {
        "id": "244",
        "lastVisitTime": 1558542734924.692,
        "title": "Arif Vladi Marshi i UCK - YouTube",
        "typedCount": 0,
        "url": "https://www.youtube.com/watch?v=7pdFlxdJlsQ",
        "visitCount": 1
    },
    {
        "id": "243",
        "lastVisitTime": 1558542732253.57,
        "title": "Gold AG - PUSHKA E LIRISE (Official Video) - YouTube",
        "typedCount": 0,
        "url": "https://www.youtube.com/watch?v=PMpeo13T-Ig",
        "visitCount": 1
    },
    {
        "id": "242",
        "lastVisitTime": 1558542729321.217,
        "title": "Gold Ag ft Ismet Bexheti - Armikut si perulet-Music BOX 2016 - YouTube",
        "typedCount": 0,
        "url": "https://www.youtube.com/watch?v=958IEDMT2b0",
        "visitCount": 1
    },
    {
        "id": "241",
        "lastVisitTime": 1558542726511.828,
        "title": "Gold AG ft Hysni Klinaku - Djali i Ushtarit (Official Video) - YouTube",
        "typedCount": 0,
        "url": "https://www.youtube.com/watch?v=wqIMMksm6Zk",
        "visitCount": 1
    },
    {
        "id": "240",
        "lastVisitTime": 1558542723531.989,
        "title": "Gold AG - Lotët e djalit (Official Video) - YouTube",
        "typedCount": 0,
        "url": "https://www.youtube.com/watch?v=MoLzrmuP5Fg",
        "visitCount": 1
    },
    {
        "id": "239",
        "lastVisitTime": 1558542720360.873,
        "title": "Gold AG ft Duli - Pa namaz (Official Video) - YouTube",
        "typedCount": 0,
        "url": "https://www.youtube.com/watch?v=obiy5PEIDDs",
        "visitCount": 1
    },
    {
        "id": "238",
        "lastVisitTime": 1558542717456.379,
        "title": "Aida Doci - Iftari i nanes - YouTube",
        "typedCount": 0,
        "url": "https://www.youtube.com/watch?v=olEza3nE7rE",
        "visitCount": 1
    },
    {
        "id": "237",
        "lastVisitTime": 1558542714841.506,
        "title": "Aida Doci - Sexhadja e nanes (LIVE) - YouTube",
        "typedCount": 0,
        "url": "https://www.youtube.com/watch?v=GE1iFamzTn8",
        "visitCount": 1
    },
    {
        "id": "236",
        "lastVisitTime": 1558542711820.8079,
        "title": "Egzon Ibrahimi - Plaka e shkretetires - YouTube",
        "typedCount": 0,
        "url": "https://www.youtube.com/watch?v=O2YAF-gN-Lg",
        "visitCount": 1
    },
    {
        "id": "235",
        "lastVisitTime": 1558542709132.028,
        "title": "Driton Salihu Per Ty Allah new clip 2009 - YouTube",
        "typedCount": 0,
        "url": "https://www.youtube.com/watch?v=nHMA9BEJLm8",
        "visitCount": 1
    },
    {
        "id": "234",
        "lastVisitTime": 1558542706311.451,
        "title": "Driton Salihu new photos with song muhammed - YouTube",
        "typedCount": 0,
        "url": "https://www.youtube.com/watch?v=9mS2YB1d-pQ",
        "visitCount": 1
    },
    {
        "id": "233",
        "lastVisitTime": 1558542703704.908,
        "title": "Driton Salihu-JA RESULALLAH-NEW CLIP 2011 - YouTube",
        "typedCount": 0,
        "url": "https://www.youtube.com/watch?v=T2BL0tjXj0A",
        "visitCount": 1
    },
    {
        "id": "232",
        "lastVisitTime": 1558542701044.085,
        "title": "Driton Salihu - Muhammedi a.s. - YouTube",
        "typedCount": 0,
        "url": "https://www.youtube.com/watch?v=cgbqHPoKS88",
        "visitCount": 1
    },
    {
        "id": "231",
        "lastVisitTime": 1558542698512.398,
        "title": "Driton Salihu - Muhamed (as) - Ilahi - YouTube",
        "typedCount": 0,
        "url": "https://www.youtube.com/watch?v=pAfuH38zk9Q",
        "visitCount": 1
    },
    {
        "id": "230",
        "lastVisitTime": 1558542696018.562,
        "title": "ILAHI - Para Allahut kemi me dal (HD 1080p) - YouTube",
        "typedCount": 0,
        "url": "https://www.youtube.com/watch?v=YT-h3f_XpIc",
        "visitCount": 1
    },
    {
        "id": "229",
        "lastVisitTime": 1558542693153.1428,
        "title": "Grupi NUR- Na fal o Zot.wmv - YouTube",
        "typedCount": 0,
        "url": "https://www.youtube.com/watch?v=fCf2dNbM4p4",
        "visitCount": 1
    },
    {
        "id": "228",
        "lastVisitTime": 1558542690530.554,
        "title": "ilahi - shqip lutju zotit - YouTube",
        "typedCount": 0,
        "url": "https://www.youtube.com/watch?v=vAAu_ROk37Q",
        "visitCount": 1
    },
    {
        "id": "227",
        "lastVisitTime": 1558542687755.303,
        "title": "Amar Ibraimi - Namazi i Sabahut ( New Ilahi 2015 ) - YouTube",
        "typedCount": 0,
        "url": "https://www.youtube.com/watch?v=lIk4TkIxb4E",
        "visitCount": 1
    },
    {
        "id": "226",
        "lastVisitTime": 1558542685056.705,
        "title": "ilahi Shqip - U Zgjova Heret Me Fal Sabahun - YouTube",
        "typedCount": 0,
        "url": "https://www.youtube.com/watch?v=kxvOu5eGIik",
        "visitCount": 1
    },
    {
        "id": "225",
        "lastVisitTime": 1558542682663.116,
        "title": "ilahi Shqip -Te Lutem Zot Prej Shejtanit Mem Largu - YouTube",
        "typedCount": 0,
        "url": "https://www.youtube.com/watch?v=Q28Rq1AdhgU",
        "visitCount": 1
    },
    {
        "id": "224",
        "lastVisitTime": 1558542679793.972,
        "title": "ilahi Shqip 2014 - YouTube",
        "typedCount": 0,
        "url": "https://www.youtube.com/watch?v=LEnUi41ilWs",
        "visitCount": 1
    },
    {
        "id": "223",
        "lastVisitTime": 1558542676934.65,
        "title": "ILAHI QE KNAQ ZEMRAT - YouTube",
        "typedCount": 0,
        "url": "https://www.youtube.com/watch?v=1kecqt1LGhk",
        "visitCount": 1
    },
    {
        "id": "222",
        "lastVisitTime": 1558542674224.504,
        "title": "O Zot une jam i varfer - Erduan Hiseni 2014 - YouTube",
        "typedCount": 0,
        "url": "https://www.youtube.com/watch?v=NVQQtmEWmSw",
        "visitCount": 1
    },
    {
        "id": "221",
        "lastVisitTime": 1558542671463.6929,
        "title": "Nisret Krasniqi Pasanik e fukara 2015 official - YouTube",
        "typedCount": 0,
        "url": "https://www.youtube.com/watch?v=SK2aVFDLf4w",
        "visitCount": 1
    },
    {
        "id": "220",
        "lastVisitTime": 1558542668852.118,
        "title": "ILAHI Mensur Kadriu \" Mir se erdhe Ramazan\" Official 2016 - YouTube",
        "typedCount": 0,
        "url": "https://www.youtube.com/watch?v=UeKrMKJalDU",
        "visitCount": 1
    },
    {
        "id": "218",
        "lastVisitTime": 1558542666362.151,
        "title": "Grupi \"Ardhmëria\" - Hajde Ramazan (official video 2016) - YouTube",
        "typedCount": 0,
        "url": "https://www.youtube.com/watch?v=BUnTYbfseGA",
        "visitCount": 2
    },
    {
        "id": "219",
        "lastVisitTime": 1558542663634.335,
        "title": "Amar Ismaili - Jetim (Official Video 2014) - YouTube",
        "typedCount": 0,
        "url": "https://www.youtube.com/watch?v=WnJhbDwP9n0",
        "visitCount": 1
    },
    {
        "id": "217",
        "lastVisitTime": 1558542658880.095,
        "title": "Motrat Burrniku - Muaji i Bekuar 2019 - YouTube",
        "typedCount": 0,
        "url": "https://www.youtube.com/watch?v=sH650N5HWUg",
        "visitCount": 1
    },
    {
        "id": "216",
        "lastVisitTime": 1558542656335.49,
        "title": "Nusret Kurtishi - Kendo oj zemra ime (official video 2015) - YouTube",
        "typedCount": 0,
        "url": "https://www.youtube.com/watch?v=jqiF04JEisI",
        "visitCount": 1
    },
    {
        "id": "215",
        "lastVisitTime": 1558542653573.554,
        "title": "Nusret Kurtishi - Namazi 2018 - YouTube",
        "typedCount": 0,
        "url": "https://www.youtube.com/watch?v=jmnxF0VQKJc",
        "visitCount": 1
    },
    {
        "id": "214",
        "lastVisitTime": 1558542650854.684,
        "title": "Kabil Keça - M'lindi Vajze (Official Video). - YouTube",
        "typedCount": 0,
        "url": "https://www.youtube.com/watch?v=DC1E5iL6f_g",
        "visitCount": 1
    },
    {
        "id": "213",
        "lastVisitTime": 1558542648525.093,
        "title": "Kabil Keça-Nje nuse e ve(Official Video). - YouTube",
        "typedCount": 0,
        "url": "https://www.youtube.com/watch?v=5qSSEoJc400",
        "visitCount": 1
    },
    {
        "id": "212",
        "lastVisitTime": 1558542645787.945,
        "title": "Kabil Keça-URATA E NANËS(Official video). - YouTube",
        "typedCount": 0,
        "url": "https://www.youtube.com/watch?v=AHvy7Pkj6xU",
        "visitCount": 1
    },
    {
        "id": "211",
        "lastVisitTime": 1558542643060.697,
        "title": "Kabil Keça Gurbeti 2017 - YouTube",
        "typedCount": 0,
        "url": "https://www.youtube.com/watch?v=lHHVNwGstnI",
        "visitCount": 1
    },
    {
        "id": "210",
        "lastVisitTime": 1558542640192.292,
        "title": "Kabil Keça-Namazi(Official Video). - YouTube",
        "typedCount": 0,
        "url": "https://www.youtube.com/watch?v=rwODxnWFaWU",
        "visitCount": 1
    },
    {
        "id": "208",
        "lastVisitTime": 1558542637790.354,
        "title": "Ja Muhammed drita jon cila rug ne Xhennet na qon - YouTube",
        "typedCount": 0,
        "url": "https://www.youtube.com/watch?v=HoBLH0cvAYg",
        "visitCount": 2
    },
    {
        "id": "209",
        "lastVisitTime": 1558542635643.985,
        "title": "Ilahi per dit xhumaje - YouTube",
        "typedCount": 0,
        "url": "https://www.youtube.com/watch?v=11bvBjke67Y",
        "visitCount": 1
    },
    {
        "id": "207",
        "lastVisitTime": 1558542630732.606,
        "title": "Hazret Ibrahimi ilahi - YouTube",
        "typedCount": 0,
        "url": "https://www.youtube.com/watch?v=BJWddkLpDXY",
        "visitCount": 1
    },
    {
        "id": "206",
        "lastVisitTime": 1558542627913.937,
        "title": "ILAHI RAMAZANI 2019 - YouTube",
        "typedCount": 0,
        "url": "https://www.youtube.com/watch?v=4mb_z1vdLL8",
        "visitCount": 1
    },
    {
        "id": "205",
        "lastVisitTime": 1558542625401.713,
        "title": "Hfz. Adem Ramadani - Oj Medine - YouTube",
        "typedCount": 0,
        "url": "https://www.youtube.com/watch?v=8Gc48oVUZiQ",
        "visitCount": 1
    },
    {
        "id": "204",
        "lastVisitTime": 1558542622874.0461,
        "title": "Adem Ramadani- burrat e sodit -NEW 2010 - YouTube",
        "typedCount": 0,
        "url": "https://www.youtube.com/watch?v=p2TfhRZQSQQ",
        "visitCount": 1
    },
    {
        "id": "203",
        "lastVisitTime": 1558542619815.695,
        "title": "Adem Ramadani - Shkurorzimi - YouTube",
        "typedCount": 0,
        "url": "https://www.youtube.com/watch?v=mC1_LwtTTkE",
        "visitCount": 1
    },
    {
        "id": "202",
        "lastVisitTime": 1558542617571.093,
        "title": "Adem Ramadani Nena Me Nje Sy - YouTube",
        "typedCount": 0,
        "url": "https://www.youtube.com/watch?v=40xHnAhQpYU",
        "visitCount": 1
    },
    {
        "id": "200",
        "lastVisitTime": 1558542615406.5051,
        "title": "Adem Ramadani - duaja e nënës - YouTube",
        "typedCount": 0,
        "url": "https://www.youtube.com/watch?v=-ClEFVoSflo",
        "visitCount": 2
    },
    {
        "id": "201",
        "lastVisitTime": 1558542612876.7449,
        "title": "Adem Ramadani - Gjith kundi ka hy sheri - YouTube",
        "typedCount": 0,
        "url": "https://www.youtube.com/watch?v=0IKijwrW6uI",
        "visitCount": 1
    },
    {
        "id": "197",
        "lastVisitTime": 1558542608088.712,
        "title": "Adem Ramadani - Qabe moj e bukur je - YouTube",
        "typedCount": 0,
        "url": "https://www.youtube.com/watch?v=xcWJ4ygXEU0",
        "visitCount": 2
    },
    {
        "id": "199",
        "lastVisitTime": 1558542605503.96,
        "title": "Adem Ramadani - Mir Se Erdhe O Ramazan (Me Tekst) - YouTube",
        "typedCount": 0,
        "url": "https://www.youtube.com/watch?v=GqLmQlqSXww",
        "visitCount": 1
    },
    {
        "id": "198",
        "lastVisitTime": 1558542603089.8582,
        "title": "Adem Ramadani - Mire se erdhe Ramazan - YouTube",
        "typedCount": 0,
        "url": "https://www.youtube.com/watch?v=JOzhDcw29DA",
        "visitCount": 1
    },
    {
        "id": "196",
        "lastVisitTime": 1558542598491.451,
        "title": "Ilahi Per Ramazan 2019 | Mire Se Erdhe RAMAZANI 2019 Ilahi Shum E Bukur Nga Adem Ramadani - YouTube",
        "typedCount": 0,
        "url": "https://www.youtube.com/watch?v=uYMpBcVSghY",
        "visitCount": 1
    },
    {
        "id": "195",
        "lastVisitTime": 1558542595898.877,
        "title": "ilahi per RAMAZAN - YouTube",
        "typedCount": 0,
        "url": "https://www.youtube.com/watch?v=v3PX9Po4MRg",
        "visitCount": 1
    },
    {
        "id": "194",
        "lastVisitTime": 1558542593402.654,
        "title": "Ilahi Shqip - Kjo Dynja Shpejt Kame na Lan (Official Video) 2019 - YouTube",
        "typedCount": 0,
        "url": "https://www.youtube.com/watch?v=_e_PUrJi2lA",
        "visitCount": 1
    },
    {
        "id": "193",
        "lastVisitTime": 1558542590694.8171,
        "title": "Kabil Keça-Baba me 7 djem(Official Video ). - YouTube",
        "typedCount": 0,
        "url": "https://www.youtube.com/watch?v=sPWNi-ZuZXs",
        "visitCount": 1
    },
    {
        "id": "192",
        "lastVisitTime": 1558542588096.606,
        "title": "Kabil Keça - Interesi (Official Video). - YouTube",
        "typedCount": 0,
        "url": "https://www.youtube.com/watch?v=QOUMXkgxn7s",
        "visitCount": 1
    },
    {
        "id": "191",
        "lastVisitTime": 1558542585647.847,
        "title": "ILAHI Që Prek Në Zemër | Loti i Babës - Emran Bellani - YouTube",
        "typedCount": 0,
        "url": "https://www.youtube.com/watch?v=LvV1HZwi0Jo",
        "visitCount": 1
    },
    {
        "id": "190",
        "lastVisitTime": 1558542583267.525,
        "title": "Halil Kastrati - Biri Im (Official Video) | JETIMAT E BALLKANIT - YouTube",
        "typedCount": 0,
        "url": "https://www.youtube.com/watch?v=K8qukRmSM0s",
        "visitCount": 1
    },
    {
        "id": "189",
        "lastVisitTime": 1558542580460.5342,
        "title": "Argjenda Selimi - Loqka jem - YouTube",
        "typedCount": 0,
        "url": "https://www.youtube.com/watch?v=ed0tTtdla0E",
        "visitCount": 1
    },
    {
        "id": "188",
        "lastVisitTime": 1558542577736.426,
        "title": "Shyhrete Behluli & Gold AG - Vella e Moter (Official Video) - YouTube",
        "typedCount": 0,
        "url": "https://www.youtube.com/watch?v=XtoC7zyEhMU",
        "visitCount": 1
    },
    {
        "id": "187",
        "lastVisitTime": 1558542575305.786,
        "title": "Shqipe Krivenjeva - Kanagjegji - YouTube",
        "typedCount": 0,
        "url": "https://www.youtube.com/watch?v=l0Qy-Vswgxg",
        "visitCount": 1
    },
    {
        "id": "185",
        "lastVisitTime": 1558542572470.144,
        "title": "Argjenda Doci - Nata e Kanes - YouTube",
        "typedCount": 0,
        "url": "https://www.youtube.com/watch?v=Eg7z_BIEcWQ",
        "visitCount": 2
    },
    {
        "id": "186",
        "lastVisitTime": 1558542569507.404,
        "title": "Argjenda Doci - Kaj Moj Qike (Cover) - YouTube",
        "typedCount": 0,
        "url": "https://www.youtube.com/watch?v=RiqQRJeNNHM",
        "visitCount": 1
    },
    {
        "id": "184",
        "lastVisitTime": 1558542564852.716,
        "title": "Demir Krasniqi - Shkolla shqipe ne okupim - YouTube",
        "typedCount": 0,
        "url": "https://www.youtube.com/watch?v=RcsYeZAfj4s",
        "visitCount": 1
    },
    {
        "id": "183",
        "lastVisitTime": 1558542561931.0378,
        "title": "CIMA N'bunar - YouTube",
        "typedCount": 0,
        "url": "https://www.youtube.com/watch?v=T2F9C0zULfI",
        "visitCount": 1
    },
    {
        "id": "182",
        "lastVisitTime": 1558542559640.347,
        "title": "Cima 2017 - Magjia e grues - YouTube",
        "typedCount": 0,
        "url": "https://www.youtube.com/watch?v=AEpWjTv2TJI",
        "visitCount": 1
    },
    {
        "id": "181",
        "lastVisitTime": 1558542557222.979,
        "title": "Gezuar me Cimen 2014 - BABA E NANA GAFIL - YouTube",
        "typedCount": 0,
        "url": "https://www.youtube.com/watch?v=T_fXv0wD6-M",
        "visitCount": 1
    },
    {
        "id": "179",
        "lastVisitTime": 1558542554631.4722,
        "title": "Cima Dreni Kungji Fiza -Lugati n'orman - YouTube",
        "typedCount": 0,
        "url": "https://www.youtube.com/watch?v=ELZ73sUi5tQ",
        "visitCount": 2
    },
    {
        "id": "180",
        "lastVisitTime": 1558542552247.211,
        "title": "Gezuar me Cimen 2015 | Hajnat e Televizorave - YouTube",
        "typedCount": 0,
        "url": "https://www.youtube.com/watch?v=nnoJOVSd3e0",
        "visitCount": 1
    },
    {
        "id": "178",
        "lastVisitTime": 1558542547592.039,
        "title": "Cima Dreni Fiza Lala - perajka - YouTube",
        "typedCount": 0,
        "url": "https://www.youtube.com/watch?v=Q3lvtPzeuZ0",
        "visitCount": 1
    },
    {
        "id": "177",
        "lastVisitTime": 1558542544898.151,
        "title": "Cima, Shpetimi - Denimi per qen - YouTube",
        "typedCount": 0,
        "url": "https://www.youtube.com/watch?v=sX0x9DFPin8",
        "visitCount": 1
    },
    {
        "id": "176",
        "lastVisitTime": 1558542542230.3628,
        "title": "08.Cima & Leci 1 + 1 Humor 8 (Palma Gjilan) - YouTube",
        "typedCount": 0,
        "url": "https://www.youtube.com/watch?v=k9h3lpncnGQ",
        "visitCount": 1
    },
    {
        "id": "175",
        "lastVisitTime": 1558542539873.812,
        "title": "Cima,Leci,Lulia - Votova për Titen ti njeri - YouTube",
        "typedCount": 0,
        "url": "https://www.youtube.com/watch?v=W9ZVfdnxd_I",
        "visitCount": 1
    },
    {
        "id": "174",
        "lastVisitTime": 1558542537243.208,
        "title": "Cima, Leci, Dulla - Mos ma luj mexhen vlla - YouTube",
        "typedCount": 0,
        "url": "https://www.youtube.com/watch?v=AwX0IFfMqfs",
        "visitCount": 1
    },
    {
        "id": "173",
        "lastVisitTime": 1558542534784.5718,
        "title": "Sadri Imeri ..Profesori NUhi.( Ingjia Plak), Butrinti - YouTube",
        "typedCount": 0,
        "url": "https://www.youtube.com/watch?v=1GzlF4vA62Q",
        "visitCount": 1
    },
    {
        "id": "172",
        "lastVisitTime": 1558542532598.252,
        "title": "Zyra - Orsula prej gjermanie HUMOR (Gezuar 2013 - Eurolindi & ETC). - YouTube",
        "typedCount": 0,
        "url": "https://www.youtube.com/watch?v=viMLa2O0oD8",
        "visitCount": 1
    },
    {
        "id": "171",
        "lastVisitTime": 1558542530097.6282,
        "title": "Humor-Zyra,,Zyra me rene e vete ,,Eurolindi. - YouTube",
        "typedCount": 0,
        "url": "https://www.youtube.com/watch?v=mDG-4ja90Ts",
        "visitCount": 1
    },
    {
        "id": "170",
        "lastVisitTime": 1558542527503.596,
        "title": "Humor Zyra - Pavarsia e femrave (Eurolindi & ETC) - YouTube",
        "typedCount": 0,
        "url": "https://www.youtube.com/watch?v=xlZvhep6mpY",
        "visitCount": 1
    },
    {
        "id": "169",
        "lastVisitTime": 1558542525095.108,
        "title": "Lalushi - Fiki Fikirija - YouTube",
        "typedCount": 0,
        "url": "https://www.youtube.com/watch?v=-Jpw8-0wrSU",
        "visitCount": 1
    },
    {
        "id": "168",
        "lastVisitTime": 1558542522758.252,
        "title": "Lalushi - Prej vezeve deri ne sugjuk 2017 - YouTube",
        "typedCount": 0,
        "url": "https://www.youtube.com/watch?v=vAqLYIAYPXY",
        "visitCount": 1
    },
    {
        "id": "167",
        "lastVisitTime": 1558542520306.033,
        "title": "Gëzuar 8 Marsin me Baskinë 13 - YouTube",
        "typedCount": 0,
        "url": "https://www.youtube.com/watch?v=K8gLPUvsF3Y",
        "visitCount": 1
    },
    {
        "id": "166",
        "lastVisitTime": 1558542518022.301,
        "title": "Gëzuar 8 Marsin me Baskinë 12 - YouTube",
        "typedCount": 0,
        "url": "https://www.youtube.com/watch?v=ynS3NM43Sk4",
        "visitCount": 1
    },
    {
        "id": "165",
        "lastVisitTime": 1558542515711.604,
        "title": "Gëzuar 8 Marsin me Baskinë 11 - YouTube",
        "typedCount": 0,
        "url": "https://www.youtube.com/watch?v=0oXLUuU4hXU",
        "visitCount": 1
    },
    {
        "id": "164",
        "lastVisitTime": 1558542513260.5989,
        "title": "Gëzuar 8 Marsin me Baskinë 10 - YouTube",
        "typedCount": 0,
        "url": "https://www.youtube.com/watch?v=q2mCLj14yis",
        "visitCount": 1
    },
    {
        "id": "163",
        "lastVisitTime": 1558542510833.062,
        "title": "Kujdestaria e fëmijëve. Gruaja e ve dhunohet nga familjarët e burrit - YouTube",
        "typedCount": 0,
        "url": "https://www.youtube.com/watch?v=wFOof2uJ4v4",
        "visitCount": 1
    },
    {
        "id": "162",
        "lastVisitTime": 1558542508717.4958,
        "title": "DIBER DHUNE NE FAMILJE - YouTube",
        "typedCount": 0,
        "url": "https://www.youtube.com/watch?v=Wm3caRc77Ow",
        "visitCount": 1
    },
    {
        "id": "161",
        "lastVisitTime": 1558542506386.658,
        "title": "PERDHUNOHET E MITURA ABCNews 11 Janar 2014 - YouTube",
        "typedCount": 0,
        "url": "https://www.youtube.com/watch?v=ib6B_92TJng",
        "visitCount": 1
    },
    {
        "id": "160",
        "lastVisitTime": 1558542503664.919,
        "title": "PLAKU 71 VJEQ BABA---Gazetar:BAHTIR CAKOLLI,Kamera:KUSHTRIM KÇIKU - YouTube",
        "typedCount": 0,
        "url": "https://www.youtube.com/watch?v=frsEfrx1Sz8",
        "visitCount": 1
    },
    {
        "id": "158",
        "lastVisitTime": 1558542501362.72,
        "title": "Gjyshja: ja si e gjeta të vdekur foshnjen 2 muajsh - YouTube",
        "typedCount": 0,
        "url": "https://www.youtube.com/watch?v=QJ2hK25XK9w",
        "visitCount": 2
    },
    {
        "id": "159",
        "lastVisitTime": 1558542498706.336,
        "title": "KRONIKE NENA MBYT FEMIJEN ABC NEWS - YouTube",
        "typedCount": 0,
        "url": "https://www.youtube.com/watch?v=WTZQZMmL27Y",
        "visitCount": 1
    },
    {
        "id": "157",
        "lastVisitTime": 1558542494253.0278,
        "title": "A1 Report - Vjehrri i nuses qe vrau foshnjen, Lleshi: Var veten nese femija është imi - YouTube",
        "typedCount": 0,
        "url": "https://www.youtube.com/watch?v=xLeCWvUQnXs",
        "visitCount": 1
    },
    {
        "id": "156",
        "lastVisitTime": 1558542491796.612,
        "title": "KRIM NE FAMILJE BURRI VRET GRUAN NE SHKOZE PER MOTIVE PRONESIE LAJM - YouTube",
        "typedCount": 0,
        "url": "https://www.youtube.com/watch?v=OEFuMHr3q6w",
        "visitCount": 1
    },
    {
        "id": "155",
        "lastVisitTime": 1558542489211.3171,
        "title": "Rrëfime rrënqethëse të 104-vjeçares nga Dardania e Ferizajt - YouTube",
        "typedCount": 0,
        "url": "https://www.youtube.com/watch?v=GGNwFdA0zZU",
        "visitCount": 1
    },
    {
        "id": "154",
        "lastVisitTime": 1558542486597.087,
        "title": "Plaka 87 vjeqare pyet në emisionin javor në Radio (brenga e saj, namazi) - Dr.Shefqet Krasniqi - YouTube",
        "typedCount": 0,
        "url": "https://www.youtube.com/watch?v=bL82x8rWv4U",
        "visitCount": 1
    },
    {
        "id": "153",
        "lastVisitTime": 1558542484329.663,
        "title": "Kur njeriu vdes dhe i mbeten sytë hapur - Hoxhë Mustafa Tërniqi - YouTube",
        "typedCount": 0,
        "url": "https://www.youtube.com/watch?v=qB6xdLcSYr4",
        "visitCount": 1
    },
    {
        "id": "152",
        "lastVisitTime": 1558542481929.507,
        "title": "Tmerr në varrezat e Sharrës. I vdekuri del nga arkivoli teksa po e varrosnin dhe… - YouTube",
        "typedCount": 0,
        "url": "https://www.youtube.com/watch?v=7vD9Gx4RBx0",
        "visitCount": 1
    },
    {
        "id": "151",
        "lastVisitTime": 1558542479829.625,
        "title": "Pasi varroset i vdekuri çfarë ndodh me shpirtin? - Hoxhë Ahmed Kalaja - YouTube",
        "typedCount": 0,
        "url": "https://www.youtube.com/watch?v=IfCEWneowLU",
        "visitCount": 1
    },
    {
        "id": "150",
        "lastVisitTime": 1558542477281.59,
        "title": "Jeta e re në varr - Hoxhë Enis Rama - YouTube",
        "typedCount": 0,
        "url": "https://www.youtube.com/watch?v=L69zbvzbMDQ",
        "visitCount": 1
    },
    {
        "id": "149",
        "lastVisitTime": 1558542474834.6182,
        "title": "Dallimi mes ISLAMIT dhe krishterizmit - YouTube",
        "typedCount": 0,
        "url": "https://www.youtube.com/watch?v=um39ZPiH1IU",
        "visitCount": 1
    },
    {
        "id": "148",
        "lastVisitTime": 1558542472512.237,
        "title": "Kthimi i azilkërkuesve nga Gjermania - Prishtinë - 17 shkurt 2015 - YouTube",
        "typedCount": 0,
        "url": "https://www.youtube.com/watch?v=f8Cd34cGun8",
        "visitCount": 1
    },
    {
        "id": "147",
        "lastVisitTime": 1558542470311.2659,
        "title": "Aeroplani Vjenë Prishtinë, ulje emergjente në Beograd -07 11 2016 - YouTube",
        "typedCount": 0,
        "url": "https://www.youtube.com/watch?v=FbqDzC1nHHo",
        "visitCount": 1
    },
    {
        "id": "146",
        "lastVisitTime": 1558542467854.2832,
        "title": "Tragjedia në alpe. Zbardhet biseda e dy pilotëve - YouTube",
        "typedCount": 0,
        "url": "https://www.youtube.com/watch?v=cHGI5uB5Ijw",
        "visitCount": 1
    },
    {
        "id": "145",
        "lastVisitTime": 1558542465110.2979,
        "title": "Fenomene Natyrore qe Shkenca Nuk Mund Ti Jap Shpjegim ! - YouTube",
        "typedCount": 0,
        "url": "https://www.youtube.com/watch?v=TWqUJnGAAxs",
        "visitCount": 1
    },
    {
        "id": "144",
        "lastVisitTime": 1558542462761.466,
        "title": "Krijesat Misterioze qe Jetojne ne 'Fundin e Botes' | Fakte Interesante - YouTube",
        "typedCount": 0,
        "url": "https://www.youtube.com/watch?v=ddcLjLyhMpM",
        "visitCount": 1
    },
    {
        "id": "143",
        "lastVisitTime": 1558542460500.805,
        "title": "6 Krijesa Misterioze Detare te Kapura ne Kamera ! ( Fakte Interesante Shqip ) - YouTube",
        "typedCount": 0,
        "url": "https://www.youtube.com/watch?v=ypNI9hYwi0Y",
        "visitCount": 1
    },
    {
        "id": "142",
        "lastVisitTime": 1558542458133.7942,
        "title": "5 Gjera te Pabesueshme qe Dolen nga Deti | Fakte Interesante - YouTube",
        "typedCount": 0,
        "url": "https://www.youtube.com/watch?v=o3W4jgQ_2OY",
        "visitCount": 1
    },
    {
        "id": "141",
        "lastVisitTime": 1558542455796.371,
        "title": "12 Gjera te Cuditshme ne Qiell te Kapura nga Kamerat • Fakte Interesante - YouTube",
        "typedCount": 0,
        "url": "https://www.youtube.com/watch?v=Rmwze_hr6wE",
        "visitCount": 1
    },
    {
        "id": "140",
        "lastVisitTime": 1558542453487.8572,
        "title": "18. A e prish puthja dhe ledhatimi i gruas agjërimin ? - YouTube",
        "typedCount": 0,
        "url": "https://www.youtube.com/watch?v=ztcxoDrVu_8",
        "visitCount": 1
    },
    {
        "id": "139",
        "lastVisitTime": 1558542451265.727,
        "title": "A ka gjynah një burrë nëse e refuzon bashkëshorten në shtrat? - 124.7 - YouTube",
        "typedCount": 0,
        "url": "https://www.youtube.com/watch?v=hGcnlL6U35c",
        "visitCount": 1
    },
    {
        "id": "138",
        "lastVisitTime": 1558542448749.6108,
        "title": "08•Gruaja që nuk i afrohet burrit të saj kur ai e thërret•hoxhë Lulzim SUSURI - YouTube",
        "typedCount": 0,
        "url": "https://www.youtube.com/watch?v=2HYruvzEHHw",
        "visitCount": 1
    },
    {
        "id": "137",
        "lastVisitTime": 1558542446539.44,
        "title": "Gruaja nuk është rob, por është Zonjë ᴴᴰ┇Hoxhë Fadil Musliu - YouTube",
        "typedCount": 0,
        "url": "https://www.youtube.com/watch?v=vBPgz0_abaE",
        "visitCount": 1
    },
    {
        "id": "136",
        "lastVisitTime": 1558542444461.439,
        "title": "Burri i vërtetë dhe ai që e bën gruan të qajë - Hoxhë Ekrem Avdiu - YouTube",
        "typedCount": 0,
        "url": "https://www.youtube.com/watch?v=QWJBoZOQsa0",
        "visitCount": 1
    },
    {
        "id": "135",
        "lastVisitTime": 1558542442201.9429,
        "title": "Burri më ka tradhtuar (pyetje) - Hoxhë Irfan Salihu - YouTube",
        "typedCount": 0,
        "url": "https://www.youtube.com/watch?v=6mNgnSavkA4",
        "visitCount": 1
    },
    {
        "id": "132",
        "lastVisitTime": 1558542439876.2158,
        "title": "Burri më tradhëton qe 3 vite, cka me bo ? Dr.Shefqet Krasniqi - YouTube",
        "typedCount": 0,
        "url": "https://www.youtube.com/watch?v=7uIHlpdchdg",
        "visitCount": 2
    },
    {
        "id": "134",
        "lastVisitTime": 1558542437528.209,
        "title": "Vi nga puna i rraskapitur por gruaja nuk livrit vendi pastaj un nervozohem dhe e rrahi ? - YouTube",
        "typedCount": 0,
        "url": "https://www.youtube.com/watch?v=pqvD1jsGTwM",
        "visitCount": 1
    },
    {
        "id": "133",
        "lastVisitTime": 1558542434970.223,
        "title": "E xhelozoj burrin shumë, a e kam gjynah? - Dr. Shefqet Krasniqi - YouTube",
        "typedCount": 0,
        "url": "https://www.youtube.com/watch?v=QXDgsqW6RNU",
        "visitCount": 1
    },
    {
        "id": "131",
        "lastVisitTime": 1558542430267.247,
        "title": "a ti tregoj burrit që kam pas dashnor dhe nuk jam Virgjine - Dr.Shefqet Krasniqi *ᴴᴰ - YouTube",
        "typedCount": 0,
        "url": "https://www.youtube.com/watch?v=M2wZJwCAARQ",
        "visitCount": 1
    },
    {
        "id": "130",
        "lastVisitTime": 1558542427877.1602,
        "title": "A lejohet gruas meja ndërru mbiemrin kur të martohet - Dr. Shefqet Krasniqi - YouTube",
        "typedCount": 0,
        "url": "https://www.youtube.com/watch?v=ZfhgYgD6Qwg",
        "visitCount": 1
    },
    {
        "id": "129",
        "lastVisitTime": 1558542425718.558,
        "title": "E kam godit gruan me shuplak .? Përgjigjet: Dr.Shefqet Krasniqi - YouTube",
        "typedCount": 0,
        "url": "https://www.youtube.com/watch?v=f_TTx5ts6Ks",
        "visitCount": 1
    },
    {
        "id": "128",
        "lastVisitTime": 1558542423400.241,
        "title": "A është mëkat aborti për shkak të moshës së re që e kam? - Dr. Shefqet Krasniqi - YouTube",
        "typedCount": 0,
        "url": "https://www.youtube.com/watch?v=TmJLUWN15OE",
        "visitCount": 1
    },
    {
        "id": "127",
        "lastVisitTime": 1558542421014.621,
        "title": "Jemi martu qe 12 vite, por skemi femij mjeket thon qe jemi mir, na kshilloni - Shefqet Krasniqi - YouTube",
        "typedCount": 0,
        "url": "https://www.youtube.com/watch?v=61idtlrxFu8",
        "visitCount": 1
    },
    {
        "id": "126",
        "lastVisitTime": 1558542418657.793,
        "title": "Djemët nuk po flasin ndermjet vete për shkak të nuseve ? Dr.Shefqet Krasniqi - YouTube",
        "typedCount": 0,
        "url": "https://www.youtube.com/watch?v=uGWITDMygUs",
        "visitCount": 1
    },
    {
        "id": "125",
        "lastVisitTime": 1558542416129.96,
        "title": "Axhallarët nuk më lejojnë ta vizitoj nënën - Dr. Shefqet Krasniqi - YouTube",
        "typedCount": 0,
        "url": "https://www.youtube.com/watch?v=yq3T3oEkL4E",
        "visitCount": 1
    },
    {
        "id": "124",
        "lastVisitTime": 1558542413977.925,
        "title": "Gurja nuk më ndëgjon aspak ? Dr.Shefqet Krasniqi - YouTube",
        "typedCount": 0,
        "url": "https://www.youtube.com/watch?v=3IdYDGk1wfA",
        "visitCount": 1
    },
    {
        "id": "123",
        "lastVisitTime": 1558542411803.166,
        "title": "A është gjynah ne vajzat mos me ju dal musafirve ? Dr.Shefqet Krasniqi - YouTube",
        "typedCount": 0,
        "url": "https://www.youtube.com/watch?v=4Z0wk9BF_2k",
        "visitCount": 1
    },
    {
        "id": "122",
        "lastVisitTime": 1558542409292.083,
        "title": "Kalon një vajzë e bukur para meje dhe më jep shenjë? - Hoxhë Dhulkarnejn Ramadani - YouTube",
        "typedCount": 0,
        "url": "https://www.youtube.com/watch?v=pWD2cqjtB4I",
        "visitCount": 1
    },
    {
        "id": "121",
        "lastVisitTime": 1558542406950.716,
        "title": "Zullumqari i cili mbeti pa grua - Dhulkarnejn Ramadani - YouTube",
        "typedCount": 0,
        "url": "https://www.youtube.com/watch?v=dDPp43sTXPs",
        "visitCount": 1
    },
    {
        "id": "120",
        "lastVisitTime": 1558542404778.658,
        "title": "Rri pa martu, nuk e braktisi babain - Fatmir Latifi 10.05.2013 - YouTube",
        "typedCount": 0,
        "url": "https://www.youtube.com/watch?v=biXQgqt13Yw",
        "visitCount": 1
    },
    {
        "id": "119",
        "lastVisitTime": 1558542402389.4192,
        "title": "(NGJARJE)100 euro - Fatmir Latifi - YouTube",
        "typedCount": 0,
        "url": "https://www.youtube.com/watch?v=X9i7bdD1C0Q",
        "visitCount": 1
    },
    {
        "id": "118",
        "lastVisitTime": 1558542400159.325,
        "title": "Shikoje pa tjeter. Pas 15 viteve zgjohet nga koma - Hoxhë Fatmir Latifi - YouTube",
        "typedCount": 0,
        "url": "https://www.youtube.com/watch?v=w9G_UZUJZN4",
        "visitCount": 1
    },
    {
        "id": "117",
        "lastVisitTime": 1558542397959.613,
        "title": "Plaka që u zgjua nga koma dhe pyeti ''Au lirue Doktor ShefqetI - Fatmir Latifi - YouTube",
        "typedCount": 0,
        "url": "https://www.youtube.com/watch?v=T20BPqvrmQA",
        "visitCount": 1
    },
    {
        "id": "116",
        "lastVisitTime": 1558542395818.2239,
        "title": "Elvis Naci- Vdekja, largimi nga kjo Bote! Emocionale! - YouTube",
        "typedCount": 0,
        "url": "https://www.youtube.com/watch?v=-SZHX2s6v8o",
        "visitCount": 1
    },
    {
        "id": "115",
        "lastVisitTime": 1558542393272.045,
        "title": "Më digjni e më bëni pluhur... Kam frikë të dal para Zotit (Ngjarje Interesante) - Elvis Naçi - YouTube",
        "typedCount": 0,
        "url": "https://www.youtube.com/watch?v=tVJ8Ijwncd4",
        "visitCount": 1
    },
    {
        "id": "114",
        "lastVisitTime": 1558542391037.51,
        "title": "Kush ka vajza SHPËRBLIM e ka Xhenetin! [Ngjarje Interesante] - Elvis Naçi - YouTube",
        "typedCount": 0,
        "url": "https://www.youtube.com/watch?v=r8QIQAhuRqU",
        "visitCount": 1
    },
    {
        "id": "113",
        "lastVisitTime": 1558542388818.4,
        "title": "Imami qe tronditi rrjetet sociale flet ne Opinion - YouTube",
        "typedCount": 0,
        "url": "https://www.youtube.com/watch?v=WgUWvyr1kGA",
        "visitCount": 1
    },
    {
        "id": "112",
        "lastVisitTime": 1558542386421.0242,
        "title": "DEBATI FAHRIU BLENDI - YouTube",
        "typedCount": 0,
        "url": "https://www.youtube.com/watch?v=Qst30dTzDDc",
        "visitCount": 1
    },
    {
        "id": "111",
        "lastVisitTime": 1558542383686.155,
        "title": "DEBATI NOKA ME BLENDIN - YouTube",
        "typedCount": 0,
        "url": "https://www.youtube.com/watch?v=-Z358hOEqrQ",
        "visitCount": 1
    },
    {
        "id": "110",
        "lastVisitTime": 1558542381230.212,
        "title": "RAMA-VUCIC PERPLASJA PER TREPCEN - YouTube",
        "typedCount": 0,
        "url": "https://www.youtube.com/watch?v=DggW5_6nSLE",
        "visitCount": 1
    },
    {
        "id": "109",
        "lastVisitTime": 1558542378786.811,
        "title": "Berisha: Argati i Serbise po ben pazar me territoret e Kosoves - YouTube",
        "typedCount": 0,
        "url": "https://www.youtube.com/watch?v=unGuFAJwByU",
        "visitCount": 1
    },
    {
        "id": "107",
        "lastVisitTime": 1558542376529.54,
        "title": "Shpërthen Sali Berisha: Më me kënaqësi e takoj një zyrtar serb se Hashim Thaçin - YouTube",
        "typedCount": 0,
        "url": "https://www.youtube.com/watch?v=5k06lwgkzqs",
        "visitCount": 2
    },
    {
        "id": "108",
        "lastVisitTime": 1558542374225.2988,
        "title": "Sali Berisha befason të gjithë, thotë se serbët duan Pejën - YouTube",
        "typedCount": 0,
        "url": "https://www.youtube.com/watch?v=WE5Ht1sbZeU",
        "visitCount": 1
    },
    {
        "id": "106",
        "lastVisitTime": 1558542369718.004,
        "title": "Hashim Thaçi sulmon ish-Kryeministrin Berisha: Ka bere mekate te medha - YouTube",
        "typedCount": 0,
        "url": "https://www.youtube.com/watch?v=vXtvfD5StoM",
        "visitCount": 1
    },
    {
        "id": "105",
        "lastVisitTime": 1558542367467.4429,
        "title": "Open/ Deklarata e fortë e Thaçit: Sali Berisha, argat i Millosheviçit - YouTube",
        "typedCount": 0,
        "url": "https://www.youtube.com/watch?v=d6oNSdjKO14",
        "visitCount": 1
    },
    {
        "id": "104",
        "lastVisitTime": 1558542365221.521,
        "title": "Bob C Imilye Miskaden, Li Denonse Tout Verite Miskaden Tap Kache Anndan Legliz - YouTube",
        "typedCount": 0,
        "url": "https://www.youtube.com/watch?v=isNcRPP2J-0",
        "visitCount": 1
    },
    {
        "id": "103",
        "lastVisitTime": 1558542362938.791,
        "title": "Me Zen Profèt BERGE Manke Mouri Aprè Li Fin Rankontre MENDEL la Anpil Menas Lap Resevwa... - YouTube",
        "typedCount": 0,
        "url": "https://www.youtube.com/watch?v=rDve6E3db8g",
        "visitCount": 1
    },
    {
        "id": "102",
        "lastVisitTime": 1558542360623.482,
        "title": "Men poukisa Pasteur Amel LAFLEUR ap goumen - YouTube",
        "typedCount": 0,
        "url": "https://www.youtube.com/watch?v=gpznu1QYJRw",
        "visitCount": 1
    },
    {
        "id": "101",
        "lastVisitTime": 1558542358395.406,
        "title": "Ton habillement attire soit des hommes de valeur soit des faux types! P. M. Tunasi - YouTube",
        "typedCount": 0,
        "url": "https://www.youtube.com/watch?v=NHyKLcW1NLQ",
        "visitCount": 1
    },
    {
        "id": "100",
        "lastVisitTime": 1558542356224.609,
        "title": "Pourquoi un chrétien ne doit JAMAIS être triste! Pasteur Marcello Tunasi - YouTube",
        "typedCount": 0,
        "url": "https://www.youtube.com/watch?v=nMOAbeqaP5s",
        "visitCount": 1
    },
    {
        "id": "99",
        "lastVisitTime": 1558542353997.2751,
        "title": "TA VIE EST EN RETARD PARCE QUE TU TARDES À OBÉIR À DIEU - PASTEUR MARCELLO TUNASI - YouTube",
        "typedCount": 0,
        "url": "https://www.youtube.com/watch?v=C0LW1oj7b3w",
        "visitCount": 1
    },
    {
        "id": "98",
        "lastVisitTime": 1558542351610.064,
        "title": "Une autre Dimension de Dieu pour le mariage - pasteur Marcello TUNASI - YouTube",
        "typedCount": 0,
        "url": "https://www.youtube.com/watch?v=ErMoRGbfE3w",
        "visitCount": 1
    },
    {
        "id": "97",
        "lastVisitTime": 1558542349205.469,
        "title": "COMMENT RETROUVER SA VIE DE PRIÈRE AVEC PAST MARCELLO TUNASI - YouTube",
        "typedCount": 0,
        "url": "https://www.youtube.com/watch?v=3wekSKkFClM",
        "visitCount": 1
    },
    {
        "id": "96",
        "lastVisitTime": 1558542346917.4321,
        "title": "Comment fonctionne la foi ? - Pasteur Joël Spinks - YouTube",
        "typedCount": 0,
        "url": "https://www.youtube.com/watch?v=uG6Yi-cr1-k",
        "visitCount": 1
    },
    {
        "id": "95",
        "lastVisitTime": 1558542344814.7249,
        "title": "La réponse à ton problème, c'est la FOI ! - Prières inspirées - Jérémy Sourdril - YouTube",
        "typedCount": 0,
        "url": "https://www.youtube.com/watch?v=gKU-jS4OadQ",
        "visitCount": 1
    },
    {
        "id": "94",
        "lastVisitTime": 1558542342256.9648,
        "title": "Prières et déclarations pour dormir en paix - Prières inspirées - Jérémy Sourdril - YouTube",
        "typedCount": 0,
        "url": "https://www.youtube.com/watch?v=izfSj0l46UQ",
        "visitCount": 1
    },
    {
        "id": "93",
        "lastVisitTime": 1558542339954.916,
        "title": "PRIÈRE POUR LA PROTECTION DIVINE - YouTube",
        "typedCount": 0,
        "url": "https://www.youtube.com/watch?v=jFtylcMPKkY",
        "visitCount": 1
    },
    {
        "id": "92",
        "lastVisitTime": 1558542337664.247,
        "title": "PRIÈRE DE LIBÉRATION - Abbé Guy Giroux - YouTube",
        "typedCount": 0,
        "url": "https://www.youtube.com/watch?v=uqGu_YCU-cc",
        "visitCount": 1
    },
    {
        "id": "91",
        "lastVisitTime": 1558542335459.47,
        "title": "Rosaire avec Jean-Paul 2 - YouTube",
        "typedCount": 0,
        "url": "https://www.youtube.com/watch?v=uDcz1RjiEew",
        "visitCount": 1
    },
    {
        "id": "90",
        "lastVisitTime": 1558542333064.635,
        "title": "Chapelet de la Misericorde avec Sr Emmanuel depuis Medjugorje - YouTube",
        "typedCount": 0,
        "url": "https://www.youtube.com/watch?v=ayty6541pwU",
        "visitCount": 1
    },
    {
        "id": "89",
        "lastVisitTime": 1558542321759.2139,
        "title": "Le chapelet et les vepres du mercredi 22 mai 2019 - YouTube",
        "typedCount": 0,
        "url": "https://www.youtube.com/watch?v=Wf10iYJE40I",
        "visitCount": 1
    },
    {
        "id": "88",
        "lastVisitTime": 1558542319668.165,
        "title": "Foire de Paris : Bonimenteurs, Bricoleurs et Concours Lépine - YouTube",
        "typedCount": 0,
        "url": "https://www.youtube.com/watch?v=ETiuqYPjlM4",
        "visitCount": 1
    },
    {
        "id": "87",
        "lastVisitTime": 1558542317527.352,
        "title": "Bonbons, l'incroyable bataille des confiseurs - YouTube",
        "typedCount": 0,
        "url": "https://www.youtube.com/watch?v=Px66-sevWHw",
        "visitCount": 1
    },
    {
        "id": "86",
        "lastVisitTime": 1558542317522.2449,
        "title": "Faillites, les petits commerçants en difficulté - YouTube",
        "typedCount": 0,
        "url": "https://www.youtube.com/watch?v=EjspW-YAwb4",
        "visitCount": 3
    },
    {
        "id": "60",
        "lastVisitTime": 1558542311081.461,
        "title": "Selenium IDE Test Preparation",
        "typedCount": 0,
        "url": "chrome-extension://mooikfkahbdckldjjndioackbalphokd/bootstrap.html",
        "visitCount": 2
    },
    {
        "id": "85",
        "lastVisitTime": 1558542189020.7751,
        "title": "Restaurants, plats cuisinés, enquête sur nos assiettes - YouTube",
        "typedCount": 0,
        "url": "https://www.youtube.com/watch?v=i102TDZzL98",
        "visitCount": 1
    },
    {
        "id": "84",
        "lastVisitTime": 1558542186741.39,
        "title": "Restos, guides, applis : la guerre du goût - 7 mars 2019 (France 2) - YouTube",
        "typedCount": 0,
        "url": "https://www.youtube.com/watch?v=UQTjJUoqOGU",
        "visitCount": 1
    },
    {
        "id": "83",
        "lastVisitTime": 1558542184581.017,
        "title": "Police des assiettes, enquête sous haute tention - YouTube",
        "typedCount": 0,
        "url": "https://www.youtube.com/watch?v=WBE0Vzhxnus",
        "visitCount": 1
    },
    {
        "id": "82",
        "lastVisitTime": 1558542181820.087,
        "title": "Arnaques de l'été, la France sous haute tension - YouTube",
        "typedCount": 0,
        "url": "https://www.youtube.com/watch?v=evmMnqlwmiw",
        "visitCount": 1
    },
    {
        "id": "81",
        "lastVisitTime": 1558542179410.96,
        "title": "sept à huit - émission du 20 janvier 2019 - YouTube",
        "typedCount": 0,
        "url": "https://www.youtube.com/watch?v=SB20as4eNJw",
        "visitCount": 1
    },
    {
        "id": "80",
        "lastVisitTime": 1558542177263.623,
        "title": "Sept à huit du 5 novembre 2017 TF1 2017 11 05 18 40 - YouTube",
        "typedCount": 0,
        "url": "https://www.youtube.com/watch?v=5_buT2UmGm0",
        "visitCount": 1
    },
    {
        "id": "79",
        "lastVisitTime": 1558542175047.789,
        "title": "Sept à huit - émission du 11 novembre 2018 - YouTube",
        "typedCount": 0,
        "url": "https://www.youtube.com/watch?v=qSdKkIaNPXw",
        "visitCount": 1
    },
    {
        "id": "77",
        "lastVisitTime": 1558542172950.836,
        "title": "REPORTAGE sur le MIT de Boston, La fabrique de génies (Sept à Huit) 2018 - YouTube",
        "typedCount": 0,
        "url": "https://www.youtube.com/watch?v=ag45W_FTTiM",
        "visitCount": 2
    },
    {
        "id": "78",
        "lastVisitTime": 1558542170881.64,
        "title": "La face cachée du billet de 500 euros - YouTube",
        "typedCount": 0,
        "url": "https://www.youtube.com/watch?v=odKmGEU57ZQ",
        "visitCount": 1
    },
    {
        "id": "74",
        "lastVisitTime": 1558542166018.915,
        "title": "Envoyé spécial. Corée du Nord le pays du secret - 5 octobre 2017 (France 2) - YouTube",
        "typedCount": 0,
        "url": "https://www.youtube.com/watch?v=Ua4ncK_83eU",
        "visitCount": 2
    },
    {
        "id": "76",
        "lastVisitTime": 1558542163807.487,
        "title": "Découvrez \"Africatown\" à Canton. L'Afrique au coeur de la CHINE - YouTube",
        "typedCount": 0,
        "url": "https://www.youtube.com/watch?v=RK9lU_1VujM",
        "visitCount": 1
    },
    {
        "id": "75",
        "lastVisitTime": 1558542161349.09,
        "title": "La Corée du Nord : Voyage au pays interdit / Reportage du 28 janvier 2018 - YouTube",
        "typedCount": 0,
        "url": "https://www.youtube.com/watch?v=iT0UfgIAez4",
        "visitCount": 1
    },
    {
        "id": "73",
        "lastVisitTime": 1558542156872.3281,
        "title": "Visitez la plus grande ville fantôme du monde ! - YouTube",
        "typedCount": 0,
        "url": "https://www.youtube.com/watch?v=s23Gse_gOm0",
        "visitCount": 1
    },
    {
        "id": "72",
        "lastVisitTime": 1558542154652.421,
        "title": "Le mystère du «vaisseau extraterrestre» au fond de la mer Baltique - YouTube",
        "typedCount": 0,
        "url": "https://www.youtube.com/watch?v=R-lUxzyjb1M",
        "visitCount": 1
    },
    {
        "id": "71",
        "lastVisitTime": 1558542152554.2979,
        "title": "15 CHOSES DONT VOUS NE CONNAISSEZ PAS L’UTILITÉ | Eureka - YouTube",
        "typedCount": 0,
        "url": "https://www.youtube.com/watch?v=YEursjrMeKU",
        "visitCount": 1
    },
    {
        "id": "70",
        "lastVisitTime": 1558542149738.3809,
        "title": "LES 10 OBJETS PERDUS LES PLUS RECHERCHÉS AU MONDE | Lama Faché - YouTube",
        "typedCount": 0,
        "url": "https://www.youtube.com/watch?v=i4YKz1g3O0w",
        "visitCount": 1
    },
    {
        "id": "69",
        "lastVisitTime": 1558542147535.811,
        "title": "ils Font une incroyable Découverte en ouvrant une Trappe Cachée dans leur nouvelle Maison - YouTube",
        "typedCount": 0,
        "url": "https://www.youtube.com/watch?v=AhFYL6q0BXQ",
        "visitCount": 1
    },
    {
        "id": "68",
        "lastVisitTime": 1558542145004.318,
        "title": "UN TRÉSOR DANS UN BOIS UNE BELLE DÉCOUVERTE - YouTube",
        "typedCount": 0,
        "url": "https://www.youtube.com/watch?v=9oa84g-FnKs",
        "visitCount": 1
    },
    {
        "id": "67",
        "lastVisitTime": 1558542142933.95,
        "title": "TRESOR CHEZ UN PARTICULIER - YouTube",
        "typedCount": 0,
        "url": "https://www.youtube.com/watch?v=GQL2Ur_YGSc",
        "visitCount": 1
    },
    {
        "id": "66",
        "lastVisitTime": 1558542140871.9312,
        "title": "À vendre : maison de l'horreur - YouTube",
        "typedCount": 0,
        "url": "https://www.youtube.com/watch?v=yAJHxvkPkHs",
        "visitCount": 1
    },
    {
        "id": "65",
        "lastVisitTime": 1558542138606.547,
        "title": "Pizza, sandwich, kebab : révélations sur les grosses combines de la petite restauration - Reportage - YouTube",
        "typedCount": 0,
        "url": "https://www.youtube.com/watch?v=aeVL_d1wWyc",
        "visitCount": 1
    },
    {
        "id": "64",
        "lastVisitTime": 1558542136316.665,
        "title": "Tromperies, produits périmés, bactéries, la police des assiettes sur tous les fronts - YouTube",
        "typedCount": 0,
        "url": "https://www.youtube.com/watch?v=aKS4oUUX2ys",
        "visitCount": 1
    },
    {
        "id": "63",
        "lastVisitTime": 1558542134176.862,
        "title": "Regardez le procédé pour vendre de la viande périmée ... - YouTube",
        "typedCount": 0,
        "url": "https://www.youtube.com/watch?v=ySBUdmaVC6M",
        "visitCount": 1
    },
    {
        "id": "62",
        "lastVisitTime": 1558542132095.105,
        "title": "Si vous aimez le Nutella, ne regardez jamais la vidéo!!! - YouTube",
        "typedCount": 0,
        "url": "https://www.youtube.com/watch?v=NO0mapch8mw",
        "visitCount": 1
    },
    {
        "id": "61",
        "lastVisitTime": 1558542132090.341,
        "title": "Vous êtes-vous déjà demandé comment on se perd sur Youtube? - YouTube",
        "typedCount": 0,
        "url": "https://www.youtube.com/watch?v=50_QCHzHMcs",
        "visitCount": 3
    }
]